Archivos csv/cuad2normal.csv

Record Length,2500,Points,-949.999957811E-6,19.9999996E-3,
Sample Interval,1.000000E-6,s,-948.999950197E-6,19.9999996E-3,
Trigger Point,949.999960210,Samples,-947.999942582E-6,0.0,
,,,-946.999934968E-6,19.9999996E-3,
,,,-945.999985561E-6,0.0,
,,,-944.999977946E-6,0.0,
Source,CH1,,-943.999970332E-6,0.0,
Vertical Units,Volts,,-942.999962717E-6,0.0,
Vertical Scale,499.999988824E-3,,-941.999955103E-6,0.0,
Vertical Offset,0,,-940.999947488E-6,19.9999996E-3,
Horizontal Units,s,,-939.999939874E-6,0.0,
Horizontal Scale,249.99999937E-6,,-938.999932259E-6,19.9999996E-3,
Pt Fmt,Y,,-937.999982852E-6,39.99999911E-3,
Yzero,-1.8000000,,-936.999975238E-6,0.0,
Probe Atten,1.000000,,-935.999967624E-6,0.0,
,,,-934.999960009E-6,0.0,
Note,TDS 1012B - 11:46:51 a. m.   29/07/2026,,-933.999952395E-6,0.0,
,,,-932.999944780E-6,0.0,
,,,-931.999937166E-6,19.9999996E-3,
,,,-930.999929551E-6,19.9999996E-3,
,,,-929.999980144E-6,19.9999996E-3,
,,,-928.999972530E-6,19.9999996E-3,
,,,-927.999964915E-6,0.0,
,,,-926.999957301E-6,0.0,
,,,-925.999949686E-6,0.0,
,,,-924.999942072E-6,19.9999996E-3,
,,,-923.999934457E-6,0.0,
,,,-922.999985050E-6,0.0,
,,,-921.999977436E-6,19.9999996E-3,
,,,-920.999969821E-6,0.0,
,,,-919.999962207E-6,19.9999996E-3,
,,,-918.999954592E-6,19.9999996E-3,
,,,-917.999946978E-6,0.0,
,,,-916.999939363E-6,0.0,
,,,-915.999931749E-6,19.9999996E-3,
,,,-914.999982342E-6,19.9999996E-3,
,,,-913.999974728E-6,0.0,
,,,-912.999967113E-6,0.0,
,,,-911.999959499E-6,19.9999996E-3,
,,,-910.999951884E-6,19.9999996E-3,
,,,-909.999944270E-6,0.0,
,,,-908.999936655E-6,19.9999996E-3,
,,,-907.999929041E-6,19.9999996E-3,
,,,-906.999979634E-6,19.9999996E-3,
,,,-905.999972019E-6,0.0,
,,,-904.999964405E-6,0.0,
,,,-903.999956790E-6,0.0,
,,,-902.999949176E-6,0.0,
,,,-901.999941561E-6,19.9999996E-3,
,,,-900.999933947E-6,19.9999996E-3,
,,,-899.999984540E-6,19.9999996E-3,
,,,-898.999976926E-6,0.0,
,,,-897.999969311E-6,0.0,
,,,-896.999961697E-6,0.0,
,,,-895.999954082E-6,19.9999996E-3,
,,,-894.999946468E-6,0.0,
,,,-893.999938853E-6,0.0,
,,,-892.999931239E-6,0.0,
,,,-891.999981832E-6,19.9999996E-3,
,,,-890.999974217E-6,0.0,
,,,-889.999966603E-6,19.9999996E-3,
,,,-888.999958988E-6,0.0,
,,,-887.999951374E-6,0.0,
,,,-886.999943759E-6,0.0,
,,,-885.999936145E-6,19.9999996E-3,
,,,-884.999986738E-6,0.0,
,,,-883.999979123E-6,19.9999996E-3,
,,,-882.999971509E-6,19.9999996E-3,
,,,-881.999963894E-6,19.9999996E-3,
,,,-880.999956280E-6,19.9999996E-3,
,,,-879.999948665E-6,0.0,
,,,-878.999941051E-6,0.0,
,,,-877.999933437E-6,19.9999996E-3,
,,,-876.999984030E-6,0.0,
,,,-875.999976415E-6,0.0,
,,,-874.999968801E-6,0.0,
,,,-873.999961186E-6,19.9999996E-3,
,,,-872.999953572E-6,19.9999996E-3,
,,,-871.999945957E-6,19.9999996E-3,
,,,-870.999938343E-6,19.9999996E-3,
,,,-869.999930728E-6,0.0,
,,,-868.999981321E-6,0.0,
,,,-867.999973707E-6,0.0,
,,,-866.999966092E-6,19.9999996E-3,
,,,-865.999958478E-6,0.0,
,,,-864.999950863E-6,19.9999996E-3,
,,,-863.999943249E-6,39.99999911E-3,
,,,-862.999935634E-6,39.99999911E-3,
,,,-861.999986228E-6,0.0,
,,,-860.999978613E-6,19.9999996E-3,
,,,-859.999970999E-6,19.9999996E-3,
,,,-858.999963384E-6,19.9999996E-3,
,,,-857.999955770E-6,39.99999911E-3,
,,,-856.999948155E-6,0.0,
,,,-855.999940541E-6,0.0,
,,,-854.999932926E-6,19.9999996E-3,
,,,-853.999983519E-6,0.0,
,,,-852.999975905E-6,19.9999996E-3,
,,,-851.999968290E-6,19.9999996E-3,
,,,-850.999960676E-6,0.0,
,,,-849.999953061E-6,0.0,
,,,-848.999945447E-6,0.0,
,,,-847.999937832E-6,19.9999996E-3,
,,,-846.999930218E-6,0.0,
,,,-845.999980811E-6,19.9999996E-3,
,,,-844.999973197E-6,0.0,
,,,-843.999965582E-6,0.0,
,,,-842.999957968E-6,0.0,
,,,-841.999950353E-6,0.0,
,,,-840.999942739E-6,0.0,
,,,-839.999935124E-6,0.0,
,,,-838.999985717E-6,39.99999911E-3,
,,,-837.999978103E-6,19.9999996E-3,
,,,-836.999970488E-6,19.9999996E-3,
,,,-835.999962874E-6,19.9999996E-3,
,,,-834.999955259E-6,0.0,
,,,-833.999947645E-6,0.0,
,,,-832.999940030E-6,0.0,
,,,-831.999932416E-6,0.0,
,,,-830.999983009E-6,0.0,
,,,-829.999975394E-6,0.0,
,,,-828.999967780E-6,0.0,
,,,-827.999960165E-6,19.9999996E-3,
,,,-826.999952551E-6,0.0,
,,,-825.999944936E-6,19.9999996E-3,
,,,-824.999937322E-6,0.0,
,,,-823.999929707E-6,19.9999996E-3,
,,,-822.999980301E-6,19.9999996E-3,
,,,-821.999972686E-6,19.9999996E-3,
,,,-820.999965072E-6,0.0,
,,,-819.999957457E-6,19.9999996E-3,
,,,-818.999949843E-6,19.9999996E-3,
,,,-817.999942228E-6,0.0,
,,,-816.999934614E-6,0.0,
,,,-815.999985207E-6,19.9999996E-3,
,,,-814.999977592E-6,0.0,
,,,-813.999969978E-6,0.0,
,,,-812.999962363E-6,0.0,
,,,-811.999954749E-6,0.0,
,,,-810.999947134E-6,19.9999996E-3,
,,,-809.999939520E-6,19.9999996E-3,
,,,-808.999931905E-6,0.0,
,,,-807.999982499E-6,19.9999996E-3,
,,,-806.999974884E-6,0.0,
,,,-805.999967270E-6,0.0,
,,,-804.999959655E-6,0.0,
,,,-803.999952041E-6,0.0,
,,,-802.999944426E-6,19.9999996E-3,
,,,-801.999936812E-6,0.0,
,,,-800.999929197E-6,19.9999996E-3,
,,,-799.999979790E-6,19.9999996E-3,
,,,-798.999972176E-6,0.0,
,,,-797.999964561E-6,0.0,
,,,-796.999956947E-6,0.0,
,,,-795.999949332E-6,0.0,
,,,-794.999941718E-6,0.0,
,,,-793.999934103E-6,0.0,
,,,-792.999984697E-6,0.0,
,,,-791.999977082E-6,0.0,
,,,-790.999969468E-6,0.0,
,,,-789.999961853E-6,0.0,
,,,-788.999954239E-6,0.0,
,,,-787.999946624E-6,0.0,
,,,-786.999939010E-6,19.9999996E-3,
,,,-785.999931395E-6,19.9999996E-3,
,,,-784.999981988E-6,0.0,
,,,-783.999974374E-6,0.0,
,,,-782.999966759E-6,0.0,
,,,-781.999959145E-6,0.0,
,,,-780.999951530E-6,0.0,
,,,-779.999943916E-6,0.0,
,,,-778.999936301E-6,19.9999996E-3,
,,,-777.999986894E-6,19.9999996E-3,
,,,-776.999979280E-6,0.0,
,,,-775.999971665E-6,19.9999996E-3,
,,,-774.999964051E-6,19.9999996E-3,
,,,-773.999956436E-6,19.9999996E-3,
,,,-772.999948822E-6,0.0,
,,,-771.999941207E-6,19.9999996E-3,
,,,-770.999933593E-6,0.0,
,,,-769.999984186E-6,0.0,
,,,-768.999976572E-6,0.0,
,,,-767.999968957E-6,0.0,
,,,-766.999961343E-6,19.9999996E-3,
,,,-765.999953728E-6,2.5000000,
,,,-764.999946114E-6,2.4800000,
,,,-763.999938499E-6,2.5000000,
,,,-762.999930885E-6,2.5200000,
,,,-761.999981478E-6,2.5000000,
,,,-760.999973863E-6,2.5200000,
,,,-759.999966249E-6,2.5200000,
,,,-758.999958634E-6,2.5200000,
,,,-757.999951020E-6,2.5400000,
,,,-756.999943405E-6,2.5200000,
,,,-755.999935791E-6,2.5200000,
,,,-754.999986384E-6,2.5599999,
,,,-753.999978770E-6,2.5400000,
,,,-752.999971155E-6,2.5400000,
,,,-751.999963541E-6,2.5200000,
,,,-750.999955926E-6,2.5200000,
,,,-749.999948312E-6,2.5400000,
,,,-748.999940697E-6,2.5400000,
,,,-747.999933083E-6,2.5400000,
,,,-746.999983676E-6,2.5400000,
,,,-745.999976061E-6,2.5400000,
,,,-744.999968447E-6,2.5400000,
,,,-743.999960832E-6,2.5400000,
,,,-742.999953218E-6,2.5400000,
,,,-741.999945603E-6,2.5599999,
,,,-740.999937989E-6,2.5400000,
,,,-739.999930374E-6,2.5400000,
,,,-738.999980967E-6,2.5400000,
,,,-737.999973353E-6,2.5400000,
,,,-736.999965739E-6,2.5400000,
,,,-735.999958124E-6,2.5400000,
,,,-734.999950510E-6,2.5400000,
,,,-733.999942895E-6,2.5400000,
,,,-732.999935281E-6,2.5599999,
,,,-731.999985874E-6,2.5400000,
,,,-730.999978259E-6,2.5599999,
,,,-729.999970645E-6,2.5400000,
,,,-728.999963030E-6,2.5599999,
,,,-727.999955416E-6,2.5599999,
,,,-726.999947801E-6,2.5400000,
,,,-725.999940187E-6,2.5400000,
,,,-724.999932572E-6,2.5400000,
,,,-723.999983165E-6,2.5400000,
,,,-722.999975551E-6,2.5599999,
,,,-721.999967936E-6,2.5400000,
,,,-720.999960322E-6,2.5400000,
,,,-719.999952707E-6,2.5599999,
,,,-718.999945093E-6,2.5400000,
,,,-717.999937478E-6,2.5400000,
,,,-716.999929864E-6,2.5400000,
,,,-715.999980457E-6,2.5400000,
,,,-714.999972843E-6,2.5400000,
,,,-713.999965228E-6,2.5400000,
,,,-712.999957614E-6,2.5400000,
,,,-711.999949999E-6,2.5599999,
,,,-710.999942385E-6,2.5400000,
,,,-709.999934770E-6,2.5400000,
,,,-708.999985363E-6,2.5400000,
,,,-707.999977749E-6,2.5400000,
,,,-706.999970134E-6,2.5400000,
,,,-705.999962520E-6,2.5400000,
,,,-704.999954905E-6,2.5400000,
,,,-703.999947291E-6,2.5400000,
,,,-702.999939676E-6,2.5400000,
,,,-701.999932062E-6,2.5599999,
,,,-700.999982655E-6,2.5400000,
,,,-699.999975041E-6,2.5400000,
,,,-698.999967426E-6,2.5400000,
,,,-697.999959812E-6,2.5799999,
,,,-696.999952197E-6,2.5599999,
,,,-695.999944583E-6,2.5599999,
,,,-694.999936968E-6,2.5599999,
,,,-693.999929354E-6,2.5599999,
,,,-692.999979947E-6,2.5599999,
,,,-691.999972332E-6,2.5599999,
,,,-690.999964718E-6,2.5599999,
,,,-689.999957103E-6,2.5799999,
,,,-688.999949489E-6,2.5599999,
,,,-687.999941874E-6,2.5799999,
,,,-686.999934260E-6,2.5599999,
,,,-685.999984853E-6,2.5599999,
,,,-684.999977238E-6,2.5400000,
,,,-683.999969624E-6,2.5599999,
,,,-682.999962009E-6,2.5599999,
,,,-681.999954395E-6,2.5599999,
,,,-680.999946781E-6,2.5400000,
,,,-679.999939166E-6,2.5599999,
,,,-678.999931552E-6,2.5599999,
,,,-677.999982145E-6,2.5599999,
,,,-676.999974530E-6,2.5400000,
,,,-675.999966916E-6,2.5400000,
,,,-674.999959301E-6,2.5400000,
,,,-673.999951687E-6,2.5400000,
,,,-672.999944072E-6,2.5599999,
,,,-671.999936458E-6,2.5400000,
,,,-670.999987051E-6,2.5799999,
,,,-669.999979436E-6,2.5400000,
,,,-668.999971822E-6,2.5599999,
,,,-667.999964207E-6,2.5599999,
,,,-666.999956593E-6,2.5799999,
,,,-665.999948978E-6,2.5599999,
,,,-664.999941364E-6,2.5599999,
,,,-663.999933749E-6,2.5599999,
,,,-662.999984343E-6,2.5599999,
,,,-661.999976728E-6,2.5599999,
,,,-660.999969114E-6,2.5599999,
,,,-659.999961499E-6,2.5799999,
,,,-658.999953885E-6,2.5599999,
,,,-657.999946270E-6,2.5599999,
,,,-656.999938656E-6,2.5599999,
,,,-655.999931041E-6,2.5400000,
,,,-654.999981634E-6,2.5400000,
,,,-653.999974020E-6,2.5599999,
,,,-652.999966405E-6,2.5599999,
,,,-651.999958791E-6,2.5599999,
,,,-650.999951176E-6,2.5599999,
,,,-649.999943562E-6,2.5599999,
,,,-648.999935947E-6,2.5599999,
,,,-647.999986541E-6,2.5400000,
,,,-646.999978926E-6,2.5599999,
,,,-645.999971312E-6,2.5599999,
,,,-644.999963697E-6,2.5599999,
,,,-643.999956083E-6,2.5400000,
,,,-642.999948468E-6,2.5599999,
,,,-641.999940854E-6,2.5599999,
,,,-640.999933239E-6,2.5400000,
,,,-639.999983832E-6,2.5599999,
,,,-638.999976218E-6,2.5599999,
,,,-637.999968603E-6,2.5599999,
,,,-636.999960989E-6,2.5400000,
,,,-635.999953374E-6,2.5400000,
,,,-634.999945760E-6,2.5599999,
,,,-633.999938145E-6,2.5400000,
,,,-632.999930531E-6,2.5400000,
,,,-631.999981124E-6,2.5599999,
,,,-630.999973509E-6,2.5599999,
,,,-629.999965895E-6,2.5400000,
,,,-628.999958280E-6,2.5599999,
,,,-627.999950666E-6,2.5599999,
,,,-626.999943051E-6,2.5599999,
,,,-625.999935437E-6,2.5599999,
,,,-624.999986030E-6,2.5599999,
,,,-623.999978416E-6,2.5400000,
,,,-622.999970801E-6,2.5599999,
,,,-621.999963187E-6,2.5400000,
,,,-620.999955572E-6,2.5400000,
,,,-619.999947958E-6,2.5599999,
,,,-618.999940343E-6,2.5599999,
,,,-617.999932729E-6,2.5599999,
,,,-616.999983322E-6,2.5400000,
,,,-615.999975707E-6,2.5599999,
,,,-614.999968093E-6,2.5599999,
,,,-613.999960478E-6,2.5400000,
,,,-612.999952864E-6,2.5400000,
,,,-611.999945249E-6,2.5599999,
,,,-610.999937635E-6,2.5599999,
,,,-609.999930020E-6,2.5400000,
,,,-608.999980614E-6,2.5400000,
,,,-607.999972999E-6,2.5599999,
,,,-606.999965385E-6,2.5599999,
,,,-605.999957770E-6,2.5599999,
,,,-604.999950156E-6,2.5599999,
,,,-603.999942541E-6,2.5599999,
,,,-602.999934927E-6,2.5599999,
,,,-601.999985520E-6,2.5599999,
,,,-600.999977905E-6,2.5599999,
,,,-599.999970291E-6,2.5599999,
,,,-598.999962676E-6,2.5799999,
,,,-597.999955062E-6,2.5799999,
,,,-596.999947447E-6,2.5599999,
,,,-595.999939833E-6,2.5599999,
,,,-594.999932218E-6,2.5400000,
,,,-593.999982812E-6,2.5799999,
,,,-592.999975197E-6,2.5599999,
,,,-591.999967583E-6,2.5799999,
,,,-590.999959968E-6,2.5799999,
,,,-589.999952354E-6,2.5599999,
,,,-588.999944739E-6,2.5599999,
,,,-587.999937125E-6,2.5599999,
,,,-586.999987718E-6,2.5400000,
,,,-585.999980103E-6,2.5599999,
,,,-584.999972489E-6,2.5400000,
,,,-583.999964874E-6,2.5400000,
,,,-582.999957260E-6,2.5599999,
,,,-581.999949645E-6,2.5599999,
,,,-580.999942031E-6,2.5599999,
,,,-579.999934416E-6,2.5400000,
,,,-578.999985009E-6,2.5400000,
,,,-577.999977395E-6,2.5599999,
,,,-576.999969780E-6,2.5599999,
,,,-575.999962166E-6,2.5599999,
,,,-574.999954551E-6,2.5599999,
,,,-573.999946937E-6,2.5599999,
,,,-572.999939322E-6,2.5599999,
,,,-571.999931708E-6,2.5400000,
,,,-570.999982301E-6,2.5599999,
,,,-569.999974687E-6,2.5400000,
,,,-568.999967072E-6,2.5400000,
,,,-567.999959458E-6,2.5799999,
,,,-566.999951843E-6,2.5599999,
,,,-565.999944229E-6,2.5400000,
,,,-564.999936614E-6,2.5599999,
,,,-563.999987207E-6,2.5599999,
,,,-562.999979593E-6,2.5599999,
,,,-561.999971978E-6,2.5400000,
,,,-560.999964364E-6,2.5400000,
,,,-559.999956749E-6,2.5400000,
,,,-558.999949135E-6,2.5400000,
,,,-557.999941520E-6,2.5400000,
,,,-556.999933906E-6,2.5599999,
,,,-555.999984499E-6,2.5599999,
,,,-554.999976885E-6,2.5799999,
,,,-553.999969270E-6,2.5599999,
,,,-552.999961656E-6,2.5599999,
,,,-551.999954041E-6,2.5599999,
,,,-550.999946427E-6,2.5599999,
,,,-549.999938812E-6,2.5599999,
,,,-548.999931198E-6,2.5599999,
,,,-547.999981791E-6,2.5599999,
,,,-546.999974176E-6,2.5599999,
,,,-545.999966562E-6,2.5400000,
,,,-544.999958947E-6,2.5400000,
,,,-543.999951333E-6,2.5599999,
,,,-542.999943718E-6,2.5400000,
,,,-541.999936104E-6,2.5599999,
,,,-540.999986697E-6,2.5599999,
,,,-539.999979082E-6,2.5599999,
,,,-538.999971468E-6,2.5599999,
,,,-537.999963854E-6,2.5400000,
,,,-536.999956239E-6,2.5599999,
,,,-535.999948625E-6,2.5400000,
,,,-534.999941010E-6,2.5799999,
,,,-533.999933396E-6,2.5400000,
,,,-532.999983989E-6,2.5599999,
,,,-531.999976374E-6,2.5599999,
,,,-530.999968760E-6,2.5400000,
,,,-529.999961145E-6,2.5599999,
,,,-528.999953531E-6,2.5599999,
,,,-527.999945916E-6,2.5599999,
,,,-526.999938302E-6,2.5599999,
,,,-525.999930687E-6,2.5599999,
,,,-524.999981280E-6,2.5599999,
,,,-523.999973666E-6,2.5400000,
,,,-522.999966051E-6,2.5599999,
,,,-521.999958437E-6,2.5400000,
,,,-520.999950822E-6,2.5599999,
,,,-519.999943208E-6,2.5599999,
,,,-518.999935593E-6,2.5799999,
,,,-517.999986187E-6,2.5599999,
,,,-516.999978572E-6,2.5599999,
,,,-515.999970958E-6,79.999998212E-3,
,,,-514.999963343E-6,79.999998212E-3,
,,,-513.999955729E-6,59.999998659E-3,
,,,-512.999948114E-6,59.999998659E-3,
,,,-511.999940500E-6,59.999998659E-3,
,,,-510.999932885E-6,59.999998659E-3,
,,,-509.999983478E-6,59.999998659E-3,
,,,-508.999975864E-6,39.99999911E-3,
,,,-507.999968249E-6,39.99999911E-3,
,,,-506.999960635E-6,39.99999911E-3,
,,,-505.999953020E-6,39.99999911E-3,
,,,-504.999945406E-6,39.99999911E-3,
,,,-503.999937791E-6,19.9999996E-3,
,,,-502.999930177E-6,19.9999996E-3,
,,,-501.999980770E-6,59.999998659E-3,
,,,-500.999973156E-6,39.99999911E-3,
,,,-499.999965541E-6,39.99999911E-3,
,,,-498.999957927E-6,19.9999996E-3,
,,,-497.999950312E-6,19.9999996E-3,
,,,-496.999942698E-6,19.9999996E-3,
,,,-495.999935083E-6,39.99999911E-3,
,,,-494.999985676E-6,19.9999996E-3,
,,,-493.999978062E-6,19.9999996E-3,
,,,-492.999970447E-6,0.0,
,,,-491.999962833E-6,19.9999996E-3,
,,,-490.999955218E-6,19.9999996E-3,
,,,-489.999947604E-6,19.9999996E-3,
,,,-488.999939989E-6,19.9999996E-3,
,,,-487.999961479E-6,19.9999996E-3,
,,,-486.999953864E-6,19.9999996E-3,
,,,-485.999946250E-6,0.0,
,,,-484.999967739E-6,19.9999996E-3,
,,,-483.999960124E-6,0.0,
,,,-482.999952510E-6,19.9999996E-3,
,,,-481.999944896E-6,19.9999996E-3,
,,,-480.999966385E-6,0.0,
,,,-479.999958770E-6,39.99999911E-3,
,,,-478.999951156E-6,19.9999996E-3,
,,,-477.999972645E-6,19.9999996E-3,
,,,-476.999965031E-6,19.9999996E-3,
,,,-475.999957416E-6,19.9999996E-3,
,,,-474.999949802E-6,19.9999996E-3,
,,,-473.999971291E-6,19.9999996E-3,
,,,-472.999963677E-6,39.99999911E-3,
,,,-471.999956062E-6,19.9999996E-3,
,,,-470.999948448E-6,0.0,
,,,-469.999969937E-6,19.9999996E-3,
,,,-468.999962322E-6,19.9999996E-3,
,,,-467.999954708E-6,0.0,
,,,-466.999947093E-6,19.9999996E-3,
,,,-465.999968583E-6,19.9999996E-3,
,,,-464.999960968E-6,19.9999996E-3,
,,,-463.999953354E-6,19.9999996E-3,
,,,-462.999945739E-6,19.9999996E-3,
,,,-461.999967229E-6,0.0,
,,,-460.999959614E-6,0.0,
,,,-459.999952000E-6,0.0,
,,,-458.999973489E-6,19.9999996E-3,
,,,-457.999965874E-6,19.9999996E-3,
,,,-456.999958260E-6,19.9999996E-3,
,,,-455.999950645E-6,19.9999996E-3,
,,,-454.999972135E-6,0.0,
,,,-453.999964520E-6,0.0,
,,,-452.999956906E-6,19.9999996E-3,
,,,-451.999949291E-6,19.9999996E-3,
,,,-450.999970781E-6,19.9999996E-3,
,,,-449.999963166E-6,0.0,
,,,-448.999955552E-6,19.9999996E-3,
,,,-447.999947937E-6,19.9999996E-3,
,,,-446.999969427E-6,19.9999996E-3,
,,,-445.999961812E-6,0.0,
,,,-444.999954198E-6,0.0,
,,,-443.999946583E-6,19.9999996E-3,
,,,-442.999968072E-6,0.0,
,,,-441.999960458E-6,19.9999996E-3,
,,,-440.999952843E-6,19.9999996E-3,
,,,-439.999945229E-6,0.0,
,,,-438.999966718E-6,0.0,
,,,-437.999959104E-6,19.9999996E-3,
,,,-436.999951489E-6,19.9999996E-3,
,,,-435.999972979E-6,19.9999996E-3,
,,,-434.999965364E-6,19.9999996E-3,
,,,-433.999957750E-6,19.9999996E-3,
,,,-432.999950135E-6,0.0,
,,,-431.999971624E-6,19.9999996E-3,
,,,-430.999964010E-6,19.9999996E-3,
,,,-429.999956395E-6,19.9999996E-3,
,,,-428.999948781E-6,19.9999996E-3,
,,,-427.999970270E-6,19.9999996E-3,
,,,-426.999962656E-6,0.0,
,,,-425.999955041E-6,39.99999911E-3,
,,,-424.999947427E-6,0.0,
,,,-423.999968916E-6,0.0,
,,,-422.999961302E-6,0.0,
,,,-421.999953687E-6,0.0,
,,,-420.999946073E-6,0.0,
,,,-419.999967562E-6,0.0,
,,,-418.999959948E-6,0.0,
,,,-417.999952333E-6,19.9999996E-3,
,,,-416.999944719E-6,0.0,
,,,-415.999966208E-6,0.0,
,,,-414.999958593E-6,19.9999996E-3,
,,,-413.999950979E-6,0.0,
,,,-412.999972468E-6,0.0,
,,,-411.999964854E-6,0.0,
,,,-410.999957239E-6,0.0,
,,,-409.999949625E-6,0.0,
,,,-408.999971114E-6,19.9999996E-3,
,,,-407.999963500E-6,19.9999996E-3,
,,,-406.999955885E-6,0.0,
,,,-405.999948271E-6,19.9999996E-3,
,,,-404.999969760E-6,19.9999996E-3,
,,,-403.999962145E-6,0.0,
,,,-402.99995453E-6,19.9999996E-3,
,,,-401.99994692E-6,19.9999996E-3,
,,,-400.99996841E-6,19.9999996E-3,
,,,-399.99996079E-6,19.9999996E-3,
,,,-398.99995318E-6,19.9999996E-3,
,,,-397.99994556E-6,19.9999996E-3,
,,,-396.99996705E-6,0.0,
,,,-395.99995944E-6,19.9999996E-3,
,,,-394.99995182E-6,19.9999996E-3,
,,,-393.99997331E-6,0.0,
,,,-392.99996570E-6,19.9999996E-3,
,,,-391.99995808E-6,0.0,
,,,-390.99995047E-6,0.0,
,,,-389.99997196E-6,19.9999996E-3,
,,,-388.99996434E-6,19.9999996E-3,
,,,-387.99995673E-6,19.9999996E-3,
,,,-386.99994911E-6,0.0,
,,,-385.99997060E-6,19.9999996E-3,
,,,-384.99996299E-6,19.9999996E-3,
,,,-383.99995537E-6,19.9999996E-3,
,,,-382.99994776E-6,19.9999996E-3,
,,,-381.99996925E-6,19.9999996E-3,
,,,-380.99996164E-6,19.9999996E-3,
,,,-379.99995402E-6,19.9999996E-3,
,,,-378.99994641E-6,0.0,
,,,-377.99996790E-6,19.9999996E-3,
,,,-376.99996028E-6,19.9999996E-3,
,,,-375.99995267E-6,19.9999996E-3,
,,,-374.99994505E-6,0.0,
,,,-373.99996654E-6,19.9999996E-3,
,,,-372.99995893E-6,0.0,
,,,-371.99995131E-6,19.9999996E-3,
,,,-370.99997280E-6,0.0,
,,,-369.99996519E-6,0.0,
,,,-368.99995757E-6,19.9999996E-3,
,,,-367.99994996E-6,19.9999996E-3,
,,,-366.99997145E-6,19.9999996E-3,
,,,-365.99996383E-6,19.9999996E-3,
,,,-364.99995622E-6,19.9999996E-3,
,,,-363.99994860E-6,19.9999996E-3,
,,,-362.99997009E-6,19.9999996E-3,
,,,-361.99996248E-6,0.0,
,,,-360.99995486E-6,19.9999996E-3,
,,,-359.99994725E-6,19.9999996E-3,
,,,-358.99996874E-6,19.9999996E-3,
,,,-357.99996112E-6,19.9999996E-3,
,,,-356.99995351E-6,0.0,
,,,-355.99994590E-6,0.0,
,,,-354.99996739E-6,19.9999996E-3,
,,,-353.99995977E-6,19.9999996E-3,
,,,-352.99995216E-6,0.0,
,,,-351.99997365E-6,0.0,
,,,-350.99996603E-6,19.9999996E-3,
,,,-349.99995842E-6,0.0,
,,,-348.99995080E-6,0.0,
,,,-347.99997229E-6,39.99999911E-3,
,,,-346.99996468E-6,0.0,
,,,-345.99995706E-6,0.0,
,,,-344.99994945E-6,0.0,
,,,-343.99997094E-6,0.0,
,,,-342.99996332E-6,0.0,
,,,-341.99995571E-6,19.9999996E-3,
,,,-340.99994809E-6,0.0,
,,,-339.99996958E-6,39.99999911E-3,
,,,-338.99996197E-6,19.9999996E-3,
,,,-337.99995435E-6,19.9999996E-3,
,,,-336.99994674E-6,19.9999996E-3,
,,,-335.99996823E-6,0.0,
,,,-334.99996061E-6,19.9999996E-3,
,,,-333.99995300E-6,0.0,
,,,-332.99994539E-6,0.0,
,,,-331.99996687E-6,0.0,
,,,-330.99995926E-6,0.0,
,,,-329.99995165E-6,0.0,
,,,-328.99997314E-6,19.9999996E-3,
,,,-327.99996552E-6,0.0,
,,,-326.99995791E-6,0.0,
