Archivos csv/senoidal2normal.csv

Record Length,2500,Points,-1.1400001E-3,280.00000119E-3,
Sample Interval,1.000000E-6,s,-1.1390001E-3,259.99999046E-3,
Trigger Point,1.1400001E3,Samples,-1.1380001E-3,259.99999046E-3,
,,,-1.1370000E-3,219.99999881E-3,
,,,-1.1360000E-3,219.99999881E-3,
,,,-1.1350000E-3,219.99999881E-3,
Source,CH1,,-1.1340000E-3,199.99998808E-3,
Vertical Units,Volts,,-1.1330000E-3,179.99999225E-3,
Vertical Scale,499.999988824E-3,,-1.1320001E-3,179.99999225E-3,
Vertical Offset,0,,-1.1310001E-3,159.99999642E-3,
Horizontal Units,s,,-1.1300001E-3,159.99999642E-3,
Horizontal Scale,249.99999937E-6,,-1.1290001E-3,140.0000006E-3,
Pt Fmt,Y,,-1.1280001E-3,119.9999973E-3,
Yzero,-1.4800000,,-1.1270001E-3,119.9999973E-3,
Probe Atten,1.000000,,-1.1260001E-3,119.9999973E-3,
,,,-1.1250001E-3,79.999998212E-3,
Note,TDS 1012B - 11:36:05 a. m.   29/07/2026,,-1.1240001E-3,79.999998212E-3,
,,,-1.1230001E-3,79.999998212E-3,
,,,-1.1220000E-3,59.999998659E-3,
,,,-1.1210000E-3,39.99999911E-3,
,,,-1.1200000E-3,39.99999911E-3,
,,,-1.1190000E-3,19.9999996E-3,
,,,-1.1180000E-3,39.99999911E-3,
,,,-1.1170001E-3,19.9999996E-3,
,,,-1.1160001E-3,19.9999996E-3,
,,,-1.1150001E-3,0.0,
,,,-1.1140001E-3,-19.9999996E-3,
,,,-1.1130001E-3,-19.9999996E-3,
,,,-1.1120001E-3,-39.99999911E-3,
,,,-1.1110001E-3,-39.99999911E-3,
,,,-1.1100001E-3,-39.99999911E-3,
,,,-1.1090001E-3,-79.999998212E-3,
,,,-1.1080001E-3,-79.999998212E-3,
,,,-1.1070000E-3,-59.999998659E-3,
,,,-1.1060000E-3,-99.999994040E-3,
,,,-1.1050000E-3,-79.999998212E-3,
,,,-1.1040000E-3,-79.999998212E-3,
,,,-1.1030000E-3,-99.999994040E-3,
,,,-1.1020000E-3,-99.999994040E-3,
,,,-1.1010001E-3,-119.9999973E-3,
,,,-1.1000001E-3,-119.9999973E-3,
,,,-1.0990001E-3,-140.0000006E-3,
,,,-1.0980001E-3,-140.0000006E-3,
,,,-1.0970001E-3,-159.99999642E-3,
,,,-1.0960001E-3,-159.99999642E-3,
,,,-1.0950001E-3,-159.99999642E-3,
,,,-1.0940001E-3,-159.99999642E-3,
,,,-1.0930001E-3,-159.99999642E-3,
,,,-1.0920000E-3,-159.99999642E-3,
,,,-1.0910000E-3,-179.99999225E-3,
,,,-1.0900000E-3,-199.99998808E-3,
,,,-1.0890000E-3,-179.99999225E-3,
,,,-1.0880000E-3,-199.99998808E-3,
,,,-1.0870000E-3,-179.99999225E-3,
,,,-1.0860001E-3,-199.99998808E-3,
,,,-1.0850001E-3,-199.99998808E-3,
,,,-1.0840001E-3,-219.99999881E-3,
,,,-1.0830001E-3,-199.99998808E-3,
,,,-1.0820001E-3,-199.99998808E-3,
,,,-1.0810001E-3,-219.99999881E-3,
,,,-1.0800001E-3,-219.99999881E-3,
,,,-1.0790001E-3,-219.99999881E-3,
,,,-1.0780001E-3,-219.99999881E-3,
,,,-1.0770001E-3,-239.99999464E-3,
,,,-1.0760000E-3,-239.99999464E-3,
,,,-1.0750000E-3,-239.99999464E-3,
,,,-1.0740000E-3,-219.99999881E-3,
,,,-1.0730000E-3,-239.99999464E-3,
,,,-1.0720000E-3,-219.99999881E-3,
,,,-1.0710001E-3,-239.99999464E-3,
,,,-1.0700001E-3,-219.99999881E-3,
,,,-1.0690001E-3,-239.99999464E-3,
,,,-1.0680001E-3,-239.99999464E-3,
,,,-1.0670001E-3,-239.99999464E-3,
,,,-1.0660001E-3,-239.99999464E-3,
,,,-1.0650001E-3,-219.99999881E-3,
,,,-1.0640001E-3,-259.99999046E-3,
,,,-1.0630001E-3,-259.99999046E-3,
,,,-1.0620001E-3,-219.99999881E-3,
,,,-1.0610000E-3,-219.99999881E-3,
,,,-1.0600000E-3,-239.99999464E-3,
,,,-1.0590000E-3,-239.99999464E-3,
,,,-1.0580000E-3,-219.99999881E-3,
,,,-1.0570000E-3,-239.99999464E-3,
,,,-1.0560000E-3,-219.99999881E-3,
,,,-1.0550001E-3,-219.99999881E-3,
,,,-1.0540001E-3,-219.99999881E-3,
,,,-1.0530001E-3,-239.99999464E-3,
,,,-1.0520001E-3,-219.99999881E-3,
,,,-1.0510001E-3,-219.99999881E-3,
,,,-1.0500001E-3,-219.99999881E-3,
,,,-1.0490001E-3,-219.99999881E-3,
,,,-1.0480001E-3,-219.99999881E-3,
,,,-1.0470001E-3,-219.99999881E-3,
,,,-1.0460000E-3,-199.99998808E-3,
,,,-1.0450000E-3,-199.99998808E-3,
,,,-1.0440000E-3,-179.99999225E-3,
,,,-1.0430000E-3,-179.99999225E-3,
,,,-1.0420000E-3,-199.99998808E-3,
,,,-1.0410000E-3,-179.99999225E-3,
,,,-1.0400001E-3,-159.99999642E-3,
,,,-1.0390001E-3,-179.99999225E-3,
,,,-1.0380001E-3,-159.99999642E-3,
,,,-1.0370001E-3,-159.99999642E-3,
,,,-1.0360001E-3,-140.0000006E-3,
,,,-1.0350001E-3,-140.0000006E-3,
,,,-1.0340001E-3,-159.99999642E-3,
,,,-1.0330001E-3,-140.0000006E-3,
,,,-1.0320001E-3,-119.9999973E-3,
,,,-1.0310001E-3,-119.9999973E-3,
,,,-1.0300000E-3,-119.9999973E-3,
,,,-1.0290000E-3,-119.9999973E-3,
,,,-1.0280000E-3,-119.9999973E-3,
,,,-1.0270000E-3,-99.999994040E-3,
,,,-1.0260000E-3,-79.999998212E-3,
,,,-1.0250001E-3,-79.999998212E-3,
,,,-1.0240001E-3,-59.999998659E-3,
,,,-1.0230001E-3,-59.999998659E-3,
,,,-1.0220001E-3,-59.999998659E-3,
,,,-1.0210001E-3,-59.999998659E-3,
,,,-1.0200001E-3,-39.99999911E-3,
,,,-1.0190001E-3,-39.99999911E-3,
,,,-1.0180001E-3,-19.9999996E-3,
,,,-1.0170001E-3,-19.9999996E-3,
,,,-1.0160001E-3,0.0,
,,,-1.0150000E-3,0.0,
,,,-1.0140000E-3,19.9999996E-3,
,,,-1.0130000E-3,19.9999996E-3,
,,,-1.0120000E-3,39.99999911E-3,
,,,-1.0110000E-3,59.999998659E-3,
,,,-1.0100001E-3,59.999998659E-3,
,,,-1.0090001E-3,59.999998659E-3,
,,,-1.0080001E-3,79.999998212E-3,
,,,-1.0070001E-3,99.999994040E-3,
,,,-1.0060001E-3,79.999998212E-3,
,,,-1.0050001E-3,99.999994040E-3,
,,,-1.0040001E-3,119.9999973E-3,
,,,-1.0030001E-3,140.0000006E-3,
,,,-1.0020001E-3,140.0000006E-3,
,,,-1.0010001E-3,140.0000006E-3,
,,,-1.0000000E-3,159.99999642E-3,
,,,-999.000039883E-6,179.99999225E-3,
,,,-998.000032268E-6,179.99999225E-3,
,,,-997.000024654E-6,199.99998808E-3,
,,,-996.000017039E-6,219.99999881E-3,
,,,-995.000009425E-6,239.99999464E-3,
,,,-994.000118226E-6,239.99999464E-3,
,,,-993.000110611E-6,239.99999464E-3,
,,,-992.000102997E-6,259.99999046E-3,
,,,-991.000095382E-6,280.00000119E-3,
,,,-990.000087768E-6,280.00000119E-3,
,,,-989.000080153E-6,299.99998212E-3,
,,,-988.000072539E-6,319.99999285E-3,
,,,-987.000064924E-6,340.00000358E-3,
,,,-986.000057310E-6,340.00000358E-3,
,,,-985.000049695E-6,379.99999523E-3,
,,,-984.000042081E-6,379.99999523E-3,
,,,-983.000034466E-6,399.99997616E-3,
,,,-982.000026852E-6,419.999986887E-3,
,,,-981.000019237E-6,399.99997616E-3,
,,,-980.000011623E-6,419.999986887E-3,
,,,-979.000120424E-6,459.999978542E-3,
,,,-978.000112809E-6,479.999989271E-3,
,,,-977.000105195E-6,479.999989271E-3,
,,,-976.000039373E-6,479.999989271E-3,
,,,-975.000089966E-6,500.000000000E-3,
,,,-974.000082351E-6,519.999980927E-3,
,,,-973.000074737E-6,519.999980927E-3,
,,,-972.000067122E-6,539.999961853E-3,
,,,-971.000059508E-6,560.000002384E-3,
,,,-970.000051893E-6,560.000002384E-3,
,,,-969.000044279E-6,599.999964237E-3,
,,,-968.000094872E-6,599.999964237E-3,
,,,-967.000087257E-6,620.000004768E-3,
,,,-966.000079643E-6,620.000004768E-3,
,,,-965.000072028E-6,639.999985695E-3,
,,,-964.000064414E-6,659.999966621E-3,
,,,-963.000056800E-6,680.000007153E-3,
,,,-962.000049185E-6,699.999988079E-3,
,,,-961.000041571E-6,699.999988079E-3,
,,,-960.000092164E-6,740.000009537E-3,
,,,-959.000084549E-6,740.000009537E-3,
,,,-958.000076935E-6,759.999990463E-3,
,,,-957.000069320E-6,779.999971390E-3,
,,,-956.000061706E-6,799.999952316E-3,
,,,-955.000054091E-6,799.999952316E-3,
,,,-954.000046477E-6,839.999973774E-3,
,,,-953.000038862E-6,839.999973774E-3,
,,,-952.000089455E-6,859.999954700E-3,
,,,-951.000081841E-6,859.999954700E-3,
,,,-950.000074226E-6,879.999995232E-3,
,,,-949.000066612E-6,899.999976158E-3,
,,,-948.000058997E-6,919.999957085E-3,
,,,-947.000051383E-6,939.999997616E-3,
,,,-946.000043768E-6,959.999978542E-3,
,,,-945.000094362E-6,959.999978542E-3,
,,,-944.000086747E-6,979.999959469E-3,
,,,-943.000079133E-6,1.000000,
,,,-942.000071518E-6,1.000000,
,,,-941.000063904E-6,1.0200000,
,,,-940.000056289E-6,1.0400000,
,,,-939.000048675E-6,1.0400000,
,,,-938.000041060E-6,1.0599999,
,,,-937.000091653E-6,1.0799999,
,,,-936.000084039E-6,1.1200000,
,,,-935.000076424E-6,1.1000000,
,,,-934.000068810E-6,1.1400000,
,,,-933.000061195E-6,1.1400000,
,,,-932.000053581E-6,1.1600000,
,,,-931.000045966E-6,1.1600000,
,,,-930.000038352E-6,1.1999999,
,,,-929.000088945E-6,1.2200000,
,,,-928.000081331E-6,1.2200000,
,,,-927.000073716E-6,1.2400000,
,,,-926.000066102E-6,1.2800000,
,,,-925.000058487E-6,1.3000000,
,,,-924.000050873E-6,1.3000000,
,,,-923.000043258E-6,1.3199999,
,,,-922.000093851E-6,1.3399999,
,,,-921.000086237E-6,1.3399999,
,,,-920.000078622E-6,1.3399999,
,,,-919.000071008E-6,1.3600000,
,,,-918.000063393E-6,1.4000000,
,,,-917.000055779E-6,1.4000000,
,,,-916.000048164E-6,1.4200000,
,,,-915.000040550E-6,1.4399999,
,,,-914.000091143E-6,1.4399999,
,,,-913.000083528E-6,1.4599999,
,,,-912.000075914E-6,1.4800000,
,,,-911.000068299E-6,1.4800000,
,,,-910.000060685E-6,1.5200000,
,,,-909.000053070E-6,1.5200000,
,,,-908.000045456E-6,1.5400000,
,,,-907.000037841E-6,1.5400000,
,,,-906.000088435E-6,1.5599999,
,,,-905.000080820E-6,1.5999999,
,,,-904.000073206E-6,1.5999999,
,,,-903.000065591E-6,1.6200000,
,,,-902.000057977E-6,1.5999999,
,,,-901.000050362E-6,1.6400000,
,,,-900.000042748E-6,1.6600000,
,,,-899.000093341E-6,1.6600000,
,,,-898.000085726E-6,1.6600000,
,,,-897.000078112E-6,1.6799999,
,,,-896.000070497E-6,1.7199999,
,,,-895.000062883E-6,1.7400000,
,,,-894.000055268E-6,1.7400000,
,,,-893.000047654E-6,1.7600000,
,,,-892.000040039E-6,1.7600000,
,,,-891.000090633E-6,1.7800000,
,,,-890.000083018E-6,1.7800000,
,,,-889.000075404E-6,1.8000000,
,,,-888.000067789E-6,1.8000000,
,,,-887.000060175E-6,1.8199999,
,,,-886.000052560E-6,1.8399999,
,,,-885.000044946E-6,1.8600000,
,,,-884.000095539E-6,1.8600000,
,,,-883.000087924E-6,1.8800000,
,,,-882.000080310E-6,1.8800000,
,,,-881.000072695E-6,1.9000000,
,,,-880.000065081E-6,1.9200000,
,,,-879.000057466E-6,1.9200000,
,,,-878.000049852E-6,1.9399999,
,,,-877.000042237E-6,1.9399999,
,,,-876.000092831E-6,1.9399999,
,,,-875.000085216E-6,1.9599999,
,,,-874.000077602E-6,1.9599999,
,,,-873.000069987E-6,1.9799999,
,,,-872.000062373E-6,2.0000000,
,,,-871.000054758E-6,2.0200000,
,,,-870.000047144E-6,2.0200000,
,,,-869.000039529E-6,2.0400000,
,,,-868.000090122E-6,2.0400000,
,,,-867.000082508E-6,2.0599999,
,,,-866.000074893E-6,2.0400000,
,,,-865.000067279E-6,2.0799999,
,,,-864.000059664E-6,2.0799999,
,,,-863.000052050E-6,2.0799999,
,,,-862.000044435E-6,2.0999999,
,,,-861.000095028E-6,2.0999999,
,,,-860.000087414E-6,2.0999999,
,,,-859.000079799E-6,2.1199999,
,,,-858.000072185E-6,2.1199999,
,,,-857.000064570E-6,2.1399999,
,,,-856.000056956E-6,2.1399999,
,,,-855.000049341E-6,2.1399999,
,,,-854.000041727E-6,2.1399999,
,,,-853.000092320E-6,2.1800001,
,,,-852.000084706E-6,2.1800001,
,,,-851.000077091E-6,2.1800001,
,,,-850.000069477E-6,2.1800001,
,,,-849.000061862E-6,2.2000000,
,,,-848.000054248E-6,2.2000000,
,,,-847.000046633E-6,2.2000000,
,,,-846.000039019E-6,2.2000000,
,,,-845.000089612E-6,2.2000000,
,,,-844.000081997E-6,2.2200000,
,,,-843.000074383E-6,2.2200000,
,,,-842.000066768E-6,2.2400000,
,,,-841.000059154E-6,2.2600000,
,,,-840.000051539E-6,2.2400000,
,,,-839.000043925E-6,2.2600000,
,,,-838.000094518E-6,2.2600000,
,,,-837.000086904E-6,2.2600000,
,,,-836.000079289E-6,2.2600000,
,,,-835.000071675E-6,2.2800000,
,,,-834.000064060E-6,2.2600000,
,,,-833.000056446E-6,2.2600000,
,,,-832.000048831E-6,2.2800000,
,,,-831.000041217E-6,2.2600000,
,,,-830.000091810E-6,2.3000000,
,,,-829.000084195E-6,2.2600000,
,,,-828.000076581E-6,2.2800000,
,,,-827.000068966E-6,2.2800000,
,,,-826.000061352E-6,2.3000000,
,,,-825.000053737E-6,2.2600000,
,,,-824.000046123E-6,2.2800000,
,,,-823.000038508E-6,2.2800000,
,,,-822.000089101E-6,2.3000000,
,,,-821.000081487E-6,2.2800000,
,,,-820.000073873E-6,2.3000000,
,,,-819.000066258E-6,2.3199999,
,,,-818.000058644E-6,2.3000000,
,,,-817.000051029E-6,2.3000000,
,,,-816.000043415E-6,2.3000000,
,,,-815.000094008E-6,2.3000000,
,,,-814.000086393E-6,2.2800000,
,,,-813.000078779E-6,2.3199999,
,,,-812.000071164E-6,2.3000000,
,,,-811.000063550E-6,2.3000000,
,,,-810.000055935E-6,2.3199999,
,,,-809.000048321E-6,2.2800000,
,,,-808.000040706E-6,2.2800000,
,,,-807.000091299E-6,2.2800000,
,,,-806.000083685E-6,2.2800000,
,,,-805.000076070E-6,2.2800000,
,,,-804.000068456E-6,2.2800000,
,,,-803.000060841E-6,2.3000000,
,,,-802.000053227E-6,2.2800000,
,,,-801.000045612E-6,2.3000000,
,,,-800.000037998E-6,2.2800000,
,,,-799.000088591E-6,2.2600000,
,,,-798.000080977E-6,2.2800000,
,,,-797.000073362E-6,2.2600000,
,,,-796.000065748E-6,2.2600000,
,,,-795.000058133E-6,2.2600000,
,,,-794.000050519E-6,2.2400000,
,,,-793.000042904E-6,2.2600000,
,,,-792.000093497E-6,2.2400000,
,,,-791.000085883E-6,2.2400000,
,,,-790.000078268E-6,2.2400000,
,,,-789.000070654E-6,2.2400000,
,,,-788.000063039E-6,2.2200000,
,,,-787.000055425E-6,2.2000000,
,,,-786.000047810E-6,2.2000000,
,,,-785.000040196E-6,2.2000000,
,,,-784.000090789E-6,2.2200000,
,,,-783.000083175E-6,2.2000000,
,,,-782.000075560E-6,2.2000000,
,,,-781.000067946E-6,2.2000000,
,,,-780.000060331E-6,2.1800001,
,,,-779.000052717E-6,2.1800001,
,,,-778.000045102E-6,2.1800001,
,,,-777.000095695E-6,2.1599998,
,,,-776.000088081E-6,2.1599998,
,,,-775.000080466E-6,2.1599998,
,,,-774.000072852E-6,2.1399999,
,,,-773.000065237E-6,2.1399999,
,,,-772.000057623E-6,2.1199999,
,,,-771.000050008E-6,2.0999999,
,,,-770.000042394E-6,2.0999999,
,,,-769.000092987E-6,2.0999999,
,,,-768.000085372E-6,2.0799999,
,,,-767.000077758E-6,2.0599999,
,,,-766.000070143E-6,2.0599999,
,,,-765.000062529E-6,2.0599999,
,,,-764.000054915E-6,2.0599999,
,,,-763.000047300E-6,2.0400000,
,,,-762.000039686E-6,2.0200000,
,,,-761.000090279E-6,2.0200000,
,,,-760.000082664E-6,2.0000000,
,,,-759.000075050E-6,2.0000000,
,,,-758.000067435E-6,2.0000000,
,,,-757.000059821E-6,1.9799999,
,,,-756.000052206E-6,1.9599999,
,,,-755.000044592E-6,1.9599999,
,,,-754.000095185E-6,1.9599999,
,,,-753.000087570E-6,1.9200000,
,,,-752.000079956E-6,1.9200000,
,,,-751.000072341E-6,1.9200000,
,,,-750.000064727E-6,1.8800000,
,,,-749.000057112E-6,1.9000000,
,,,-748.000049498E-6,1.8800000,
,,,-747.000041883E-6,1.8600000,
,,,-746.000092477E-6,1.8600000,
,,,-745.000084862E-6,1.8399999,
,,,-744.000077248E-6,1.8399999,
,,,-743.000069633E-6,1.8199999,
,,,-742.000062019E-6,1.8000000,
,,,-741.000054404E-6,1.8000000,
,,,-740.000046790E-6,1.7600000,
,,,-739.000039175E-6,1.7600000,
,,,-738.000089768E-6,1.7400000,
,,,-737.000082154E-6,1.7400000,
,,,-736.000074539E-6,1.7199999,
,,,-735.000066925E-6,1.6999999,
,,,-734.000059310E-6,1.6799999,
,,,-733.000051696E-6,1.6600000,
,,,-732.000044081E-6,1.6600000,
,,,-731.000094675E-6,1.6400000,
,,,-730.000087060E-6,1.6400000,
,,,-729.000079446E-6,1.6200000,
,,,-728.000071831E-6,1.5999999,
,,,-727.000064217E-6,1.5999999,
,,,-726.000056602E-6,1.5799999,
,,,-725.000048988E-6,1.5599999,
,,,-724.000041373E-6,1.5400000,
,,,-723.000091966E-6,1.5400000,
,,,-722.000084352E-6,1.5200000,
,,,-721.000076737E-6,1.5200000,
,,,-720.000069123E-6,1.4800000,
,,,-719.000061508E-6,1.4800000,
,,,-718.000053894E-6,1.4800000,
,,,-717.000046279E-6,1.4599999,
,,,-716.000038665E-6,1.4200000,
,,,-715.000089258E-6,1.4000000,
,,,-714.000081643E-6,1.4000000,
,,,-713.000074029E-6,1.3800000,
,,,-712.000066414E-6,1.3600000,
,,,-711.000058800E-6,1.3399999,
,,,-710.000051185E-6,1.3399999,
,,,-709.000043571E-6,1.3399999,
,,,-708.000094164E-6,1.3199999,
,,,-707.000086550E-6,1.2800000,
,,,-706.000078935E-6,1.2600000,
,,,-705.000071321E-6,1.2600000,
,,,-704.000063706E-6,1.2600000,
,,,-703.000056092E-6,1.2200000,
,,,-702.000048477E-6,1.2200000,
,,,-701.000040863E-6,1.1999999,
,,,-700.000091456E-6,1.1799999,
,,,-699.000083841E-6,1.1600000,
,,,-698.000076227E-6,1.1400000,
,,,-697.000068612E-6,1.1400000,
,,,-696.000060998E-6,1.1200000,
,,,-695.000053383E-6,1.1000000,
,,,-694.000045769E-6,1.1000000,
,,,-693.000038154E-6,1.0599999,
,,,-692.000088748E-6,1.0400000,
,,,-691.000081133E-6,1.0400000,
,,,-690.000073519E-6,1.0200000,
,,,-689.000065904E-6,1.0200000,
,,,-688.000058290E-6,1.000000,
,,,-687.000050675E-6,979.999959469E-3,
,,,-686.000043061E-6,959.999978542E-3,
,,,-685.000093654E-6,939.999997616E-3,
,,,-684.000086039E-6,939.999997616E-3,
,,,-683.000078425E-6,939.999997616E-3,
,,,-682.000070810E-6,879.999995232E-3,
,,,-681.000063196E-6,879.999995232E-3,
,,,-680.000055581E-6,859.999954700E-3,
,,,-679.000047967E-6,839.999973774E-3,
,,,-678.000040352E-6,819.999992847E-3,
,,,-677.000090946E-6,819.999992847E-3,
,,,-676.000083331E-6,799.999952316E-3,
,,,-675.000075717E-6,779.999971390E-3,
,,,-674.000068102E-6,779.999971390E-3,
,,,-673.000060488E-6,759.999990463E-3,
,,,-672.000052873E-6,740.000009537E-3,
,,,-671.000045259E-6,719.999969006E-3,
,,,-670.000095852E-6,719.999969006E-3,
,,,-669.000088237E-6,699.999988079E-3,
,,,-668.000080623E-6,680.000007153E-3,
,,,-667.000073008E-6,680.000007153E-3,
,,,-666.000065394E-6,639.999985695E-3,
,,,-665.000057779E-6,639.999985695E-3,
,,,-664.000050165E-6,620.000004768E-3,
,,,-663.000042550E-6,599.999964237E-3,
,,,-662.000093143E-6,579.999983311E-3,
,,,-661.000085529E-6,579.999983311E-3,
,,,-660.000077914E-6,560.000002384E-3,
,,,-659.000070300E-6,539.999961853E-3,
,,,-658.000062685E-6,519.999980927E-3,
,,,-657.000055071E-6,500.000000000E-3,
,,,-656.000047456E-6,479.999989271E-3,
,,,-655.000039842E-6,479.999989271E-3,
,,,-654.000090435E-6,459.999978542E-3,
,,,-653.000082821E-6,459.999978542E-3,
,,,-652.000075206E-6,439.999997616E-3,
,,,-651.000067592E-6,439.999997616E-3,
,,,-650.000059977E-6,399.99997616E-3,
,,,-649.000052363E-6,419.999986887E-3,
,,,-648.000044748E-6,379.99999523E-3,
,,,-647.000095341E-6,379.99999523E-3,
,,,-646.000087727E-6,359.99998450E-3,
,,,-645.000080112E-6,340.00000358E-3,
,,,-644.000072498E-6,340.00000358E-3,
,,,-643.000064883E-6,340.00000358E-3,
,,,-642.000057269E-6,299.99998212E-3,
,,,-641.000049654E-6,299.99998212E-3,
,,,-640.000042040E-6,299.99998212E-3,
,,,-639.000092633E-6,259.99999046E-3,
,,,-638.000085019E-6,239.99999464E-3,
,,,-637.000077404E-6,239.99999464E-3,
,,,-636.000069790E-6,239.99999464E-3,
,,,-635.000062175E-6,219.99999881E-3,
,,,-634.000054561E-6,219.99999881E-3,
,,,-633.000046946E-6,179.99999225E-3,
,,,-632.000039332E-6,199.99998808E-3,
,,,-631.000089925E-6,159.99999642E-3,
,,,-630.000082310E-6,159.99999642E-3,
,,,-629.000074696E-6,140.0000006E-3,
,,,-628.000067081E-6,119.9999973E-3,
,,,-627.000059467E-6,119.9999973E-3,
,,,-626.000051852E-6,99.999994040E-3,
,,,-625.000044238E-6,99.999994040E-3,
,,,-624.000094831E-6,99.999994040E-3,
,,,-623.000087216E-6,79.999998212E-3,
,,,-622.000079602E-6,59.999998659E-3,
,,,-621.000071988E-6,39.99999911E-3,
,,,-620.000064373E-6,59.999998659E-3,
,,,-619.000056759E-6,39.99999911E-3,
,,,-618.000049144E-6,39.99999911E-3,
,,,-617.000041530E-6,19.9999996E-3,
,,,-616.000092123E-6,0.0,
,,,-615.000084508E-6,0.0,
,,,-614.000076894E-6,-39.99999911E-3,
,,,-613.000069279E-6,-19.9999996E-3,
,,,-612.000061665E-6,-19.9999996E-3,
,,,-611.000054050E-6,-19.9999996E-3,
,,,-610.000046436E-6,-39.99999911E-3,
,,,-609.000038821E-6,-59.999998659E-3,
,,,-608.000089414E-6,-59.999998659E-3,
,,,-607.000081800E-6,-39.99999911E-3,
,,,-606.000074185E-6,-79.999998212E-3,
,,,-605.000066571E-6,-79.999998212E-3,
,,,-604.000058956E-6,-99.999994040E-3,
,,,-603.000051342E-6,-99.999994040E-3,
,,,-602.000043727E-6,-119.9999973E-3,
,,,-601.000094321E-6,-119.9999973E-3,
,,,-600.000086706E-6,-119.9999973E-3,
,,,-599.000079092E-6,-119.9999973E-3,
,,,-598.000071477E-6,-159.99999642E-3,
,,,-597.000063863E-6,-159.99999642E-3,
,,,-596.000056248E-6,-159.99999642E-3,
,,,-595.000048634E-6,-159.99999642E-3,
,,,-594.000041019E-6,-159.99999642E-3,
,,,-593.000091612E-6,-159.99999642E-3,
,,,-592.000083998E-6,-179.99999225E-3,
,,,-591.000076383E-6,-159.99999642E-3,
,,,-590.000068769E-6,-179.99999225E-3,
,,,-589.000061154E-6,-199.99998808E-3,
,,,-588.000053540E-6,-199.99998808E-3,
,,,-587.000045925E-6,-199.99998808E-3,
,,,-586.000038311E-6,-199.99998808E-3,
,,,-585.000088904E-6,-219.99999881E-3,
,,,-584.000081290E-6,-219.99999881E-3,
,,,-583.000073675E-6,-219.99999881E-3,
,,,-582.000066061E-6,-219.99999881E-3,
,,,-581.000058446E-6,-219.99999881E-3,
,,,-580.000050832E-6,-219.99999881E-3,
,,,-579.000043217E-6,-239.99999464E-3,
,,,-578.000093810E-6,-239.99999464E-3,
,,,-577.000086196E-6,-219.99999881E-3,
,,,-576.000078581E-6,-219.99999881E-3,
,,,-575.000070967E-6,-219.99999881E-3,
,,,-574.000063352E-6,-259.99999046E-3,
,,,-573.000055738E-6,-239.99999464E-3,
,,,-572.000048123E-6,-239.99999464E-3,
,,,-571.000040509E-6,-239.99999464E-3,
,,,-570.000091102E-6,-219.99999881E-3,
